feb 24, 2020 5:32:25 PM DB.Globales GuardarLogger
INFORMACIÓN: CONEXION A BASE DE DATOS
Connection to localhost:5432 refused. Check that the hostname and port are correct and that the postmaster is accepting TCP/IP connections.
-----------------------------------------------------------------------------------------------------

