feb 21, 2020 5:00:23 PM DB.Globales GuardarLogger
INFORMACIÓN: class DB.Laboratorio-->ElimarReporteIngreso
ERROR: no existe la columna «reporte»
  Hint: Hay una columna llamada «reporte» en la tabla «reporteingreso_eliminados», pero no puede ser referenciada desde esta parte de la consulta.
  Position: 216
 SQL: INSERT INTO public.reporteingreso_eliminados(ingreso, reporte, idusuario, concepto, ajuste, suministro, 
 plantilla, conclusion, observacion, idespecialista, fecha_reporte, onservacion_eliminacion)  select ingreso, reporte, 3, concepto, ajuste, suministro, plantilla, conclusion, observacion, idusuario, fecha,'null' 
 from reporte_ingreso where id = 0;DELETE reporte_ingreso WHERE id = 0;INSERT INTO ingreso_estados(ingreso, idusuario, descripcion, tiempo)  VALUES(12779,3,'REPORTE ELIMINADO NRO 1 EN LABORATORIO',tiempo('2020-02-17 11:06', now(),1));
-----------------------------------------------------------------------------------------------------

feb 21, 2020 5:01:59 PM DB.Globales GuardarLogger
INFORMACIÓN: CONEXION A BASE DE DATOS
No suitable driver found for jdbc:postgresql://localhost:5432/calibracion
-----------------------------------------------------------------------------------------------------

