feb 22, 2020 8:25:34 PM DB.Globales GuardarLogger
INFORMACIÓN: CONEXION A BASE DE DATOS
No suitable driver found for jdbc:postgresql://localhost:5432/calibracion
-----------------------------------------------------------------------------------------------------

