feb 22, 2020 7:38:51 PM DB.Globales GuardarLogger
INFORMACIÓN: CONEXION A BASE DE DATOS
No suitable driver found for jdbc:postgresql://localhost:5432/calibracion
-----------------------------------------------------------------------------------------------------

