feb 24, 2020 6:13:48 PM DB.Globales GuardarLogger
INFORMACIÓN: CONEXION A BASE DE DATOS
No suitable driver found for jdbc:postgresql://localhost:5433/calibracion
-----------------------------------------------------------------------------------------------------

