feb 24, 2020 4:56:29 PM DB.Globales GuardarLogger
INFORMACIÓN: InicioSesion-BuscarUsuario
ERROR: el valor null para la columna «id» viola la restricción not null
  Detail: La fila que falla contiene (null, 3, 2020-02-24 16:56:29.311599-05, INICIO DE SESION, ACCEDER, ACCESO AL SISTEMA, 192.168.10.70).
 SQL: INSERT INTO seguridad.auditoria(idususario, modulo, accion, consulta, ip) VALUES (3,'INICIO DE SESION','ACCEDER','ACCESO AL SISTEMA','192.168.10.70');UPDATE seguridad.rbac_usuario set sesion = '192.168.10.70',fecha_sesion = '2020-02-24'  where idusu = 3
-----------------------------------------------------------------------------------------------------

feb 24, 2020 4:56:41 PM DB.Globales GuardarLogger
INFORMACIÓN: InicioSesion-BuscarUsuario
ERROR: el valor null para la columna «id» viola la restricción not null
  Detail: La fila que falla contiene (null, 3, 2020-02-24 16:56:41.687353-05, INICIO DE SESION, ACCEDER, ACCESO AL SISTEMA, 192.168.10.70).
 SQL: INSERT INTO seguridad.auditoria(idususario, modulo, accion, consulta, ip) VALUES (3,'INICIO DE SESION','ACCEDER','ACCESO AL SISTEMA','192.168.10.70');UPDATE seguridad.rbac_usuario set sesion = '192.168.10.70',fecha_sesion = '2020-02-24'  where idusu = 3
-----------------------------------------------------------------------------------------------------

