feb 21, 2020 5:01:59 PM DB.Globales GuardarLogger
INFORMACIÓN: CONEXION A BASE DE DATOS
No suitable driver found for jdbc:postgresql://localhost:5432/calibracion
-----------------------------------------------------------------------------------------------------

