feb 24, 2020 7:14:03 PM DB.Globales GuardarLogger
INFORMACIÓN: class DB.Cotizacion-->ConsultarCotizaciones
ERROR: error de sintaxis en o cerca de «from»
  Position: 43
 SQL: select json_agg(t.*) as json from (delete from temporal.cotizacion_detalle;INSERT INTO temporal.cotizacion_detalle (ingreso, idcotizacion) select DISTINCT ingreso , idcotizacion from cotizacion_detalle where ingreso > 0;select to_char(c.fecha,'yyyy/MM') as fecha, sum(subtotal-descuento) as cotizado,  sum((select SUM  (fd.subtotal) from temporal.cotizacion_detalle cd inner join factura_datelle fd on fd .ingreso = cd.ingreso  inner join factura f on f .id = fd.idfactura where c .id = cd.idcotizacion and f.estado<> 'Anulado' )) as facturado  from cotizacion c where c.estado in ('Cerrado','Aprobado' ,  'POR REEMPLAZAR') and cantequipos > 0 and to_char(c.fecha,'yyyy-MM-dd') >= '2020-02-01'  and to_char(c.fecha,'yyyy-MM-dd') <= '2020-02-24'       group by to_char(c.fecha,'yyyy/MM' ) order by 1) as t
-----------------------------------------------------------------------------------------------------

