feb 23, 2020 9:14:50 PM DB.Globales GuardarLogger
INFORMACIÓN: ValidarRutaGestion
ResultSet not positioned properly, perhaps you need to call next.
-----------------------------------------------------------------------------------------------------

